digraph {
62 [fontsize="9pt",fontname="monospace",shape=box,label="[62] IN()\lOUT()\l"];
62 -> 42 [label="(unlock m):41",fontsize="9pt",fontname="monospace"];
61 [fontsize="9pt",fontname="monospace",shape=box,label="[61] IN()\lOUT()\l"];
61 -> 62 [label="(broadcast cv):40",fontsize="9pt",fontname="monospace"];
60 [fontsize="9pt",fontname="monospace",shape=box,label="[60] IN(t24)\lOUT(t24)\l"];
60 -> 61 [label="(store-scalar rcount (- t24 1)):39",fontsize="9pt",fontname="monospace"];
59 [fontsize="9pt",fontname="monospace",shape=box,label="[59] IN()\lOUT()\l"];
59 -> 60 [label="(load-scalar t24 rcount):39",fontsize="9pt",fontname="monospace"];
58 [fontsize="9pt",fontname="monospace",shape=box,label="[58] IN()\lOUT()\l"];
58 -> 59 [label="(lock m):38",fontsize="9pt",fontname="monospace"];
57 [fontsize="9pt",fontname="monospace",shape=box,label="[57] IN()\lOUT()\l"];
57 -> 58 [label="(unlock mr):79",fontsize="9pt",fontname="monospace"];
56 [fontsize="9pt",fontname="monospace",shape=box,label="[56] IN(t27)\lOUT(t27)\l"];
56 -> 57 [label="(store-scalar nr (- t27 1)):78",fontsize="9pt",fontname="monospace"];
55 [fontsize="9pt",fontname="monospace",shape=box,label="[55] IN()\lOUT()\l"];
55 -> 56 [label="(load-scalar t27 nr):78",fontsize="9pt",fontname="monospace"];
54 [fontsize="9pt",fontname="monospace",shape=box,label="[54] IN()\lOUT()\l"];
54 -> 55 [label="(lock mr):77",fontsize="9pt",fontname="monospace"];
53 [fontsize="9pt",fontname="monospace",shape=box,label="[53] IN(t26)\lOUT(t26)\l"];
53 -> 54 [label="(assert (= t26 0)):74",fontsize="9pt",fontname="monospace"];
52 [fontsize="9pt",fontname="monospace",shape=box,label="[52] IN()\lOUT()\l"];
52 -> 53 [label="(load-scalar t26 nw):74",fontsize="9pt",fontname="monospace"];
51 [fontsize="9pt",fontname="monospace",shape=box,label="[51] IN()\lOUT()\l"];
51 -> 52 [label="(unlock mr):70",fontsize="9pt",fontname="monospace"];
50 [fontsize="9pt",fontname="monospace",shape=box,label="[50] IN(t25)\lOUT(t25)\l"];
50 -> 51 [label="(store-scalar nr (+ t25 1)):69",fontsize="9pt",fontname="monospace"];
49 [fontsize="9pt",fontname="monospace",shape=box,label="[49] IN()\lOUT()\l"];
49 -> 50 [label="(load-scalar t25 nr):69",fontsize="9pt",fontname="monospace"];
48 [fontsize="9pt",fontname="monospace",shape=box,label="[48] IN()\lOUT()\l"];
48 -> 49 [label="(lock mr):68",fontsize="9pt",fontname="monospace"];
47 [fontsize="9pt",fontname="monospace",shape=box,label="[47] IN()\lOUT()\l"];
47 -> 48 [label="(unlock m):33",fontsize="9pt",fontname="monospace"];
46 [fontsize="9pt",fontname="monospace",shape=box,label="[46] IN(t23)\lOUT(t23)\l"];
46 -> 47 [label="(store-scalar rcount (+ t23 1)):32",fontsize="9pt",fontname="monospace"];
45 [fontsize="9pt",fontname="monospace",shape=box,label="[45] IN()\lOUT()\l"];
45 -> 43 [label="(lock m):30",fontsize="9pt",fontname="monospace"];
44 [fontsize="9pt",fontname="monospace",shape=box,label="[44] IN(t22)\lOUT(t22)\l"];
44 -> 45 [label="[(> t22 0)]\l(wait cv m):29",fontsize="9pt",fontname="monospace"];
44 -> 46 [label="[(not (> t22 0))]\l(load-scalar t23 rcount):29",fontsize="9pt",fontname="monospace"];
43 [fontsize="9pt",fontname="monospace",shape=box,label="[43] IN()\lOUT()\l"];
43 -> 44 [label="(load-scalar t22 wcount):29",fontsize="9pt",fontname="monospace"];
42 [fontsize="9pt",fontname="monospace",shape=box,label="[42] IN()\lOUT()\l"];
42 -> 43 [label="(lock m):28",fontsize="9pt",fontname="monospace"];
41 [fontsize="9pt",color=blue,fillcolor=blue,fontname="monospace",shape=box,label="[41] IN(arg)\l(%let k arg)\lOUT()\l"];
41 -> 42 [label="tau:65",fontsize="9pt",fontname="monospace"];
40 [fontsize="9pt",fontname="monospace",shape=box,label="[40] IN()\lOUT()\l"];
40 -> 17 [label="(unlock m):59",fontsize="9pt",fontname="monospace"];
39 [fontsize="9pt",fontname="monospace",shape=box,label="[39] IN()\lOUT()\l"];
39 -> 40 [label="(broadcast cv):58",fontsize="9pt",fontname="monospace"];
38 [fontsize="9pt",fontname="monospace",shape=box,label="[38] IN(t31)\lOUT(t31)\l"];
38 -> 39 [label="(store-scalar wcount (- t31 1)):57",fontsize="9pt",fontname="monospace"];
37 [fontsize="9pt",fontname="monospace",shape=box,label="[37] IN()\lOUT()\l"];
37 -> 38 [label="(load-scalar t31 wcount):57",fontsize="9pt",fontname="monospace"];
36 [fontsize="9pt",fontname="monospace",shape=box,label="[36] IN()\lOUT()\l"];
36 -> 37 [label="(lock m):56",fontsize="9pt",fontname="monospace"];
35 [fontsize="9pt",fontname="monospace",shape=box,label="[35] IN()\lOUT()\l"];
35 -> 36 [label="(unlock mw):103",fontsize="9pt",fontname="monospace"];
34 [fontsize="9pt",fontname="monospace",shape=box,label="[34] IN(t35)\lOUT(t35)\l"];
34 -> 35 [label="(store-scalar nw (- t35 1)):102",fontsize="9pt",fontname="monospace"];
33 [fontsize="9pt",fontname="monospace",shape=box,label="[33] IN()\lOUT()\l"];
33 -> 34 [label="(load-scalar t35 nw):102",fontsize="9pt",fontname="monospace"];
32 [fontsize="9pt",fontname="monospace",shape=box,label="[32] IN()\lOUT()\l"];
32 -> 33 [label="(lock mw):101",fontsize="9pt",fontname="monospace"];
31 [fontsize="9pt",fontname="monospace",shape=box,label="[31] IN(t34)\lOUT(t34)\l"];
31 -> 32 [label="(assert (= t34 0)):99",fontsize="9pt",fontname="monospace"];
30 [fontsize="9pt",fontname="monospace",shape=box,label="[30] IN()\lOUT()\l"];
30 -> 31 [label="(load-scalar t34 nr):99",fontsize="9pt",fontname="monospace"];
29 [fontsize="9pt",fontname="monospace",shape=box,label="[29] IN(t33)\lOUT(t33)\l"];
29 -> 30 [label="(assert (= t33 1)):98",fontsize="9pt",fontname="monospace"];
28 [fontsize="9pt",fontname="monospace",shape=box,label="[28] IN()\lOUT()\l"];
28 -> 29 [label="(load-scalar t33 nw):98",fontsize="9pt",fontname="monospace"];
27 [fontsize="9pt",fontname="monospace",shape=box,label="[27] IN()\lOUT()\l"];
27 -> 28 [label="(unlock mw):94",fontsize="9pt",fontname="monospace"];
26 [fontsize="9pt",fontname="monospace",shape=box,label="[26] IN(t32)\lOUT(t32)\l"];
26 -> 27 [label="(store-scalar nw (+ t32 1)):93",fontsize="9pt",fontname="monospace"];
25 [fontsize="9pt",fontname="monospace",shape=box,label="[25] IN()\lOUT()\l"];
25 -> 26 [label="(load-scalar t32 nw):93",fontsize="9pt",fontname="monospace"];
24 [fontsize="9pt",fontname="monospace",shape=box,label="[24] IN()\lOUT()\l"];
24 -> 25 [label="(lock mw):92",fontsize="9pt",fontname="monospace"];
23 [fontsize="9pt",fontname="monospace",shape=box,label="[23] IN()\lOUT()\l"];
23 -> 24 [label="(unlock m):51",fontsize="9pt",fontname="monospace"];
22 [fontsize="9pt",fontname="monospace",shape=box,label="[22] IN(t30)\lOUT(t30)\l"];
22 -> 23 [label="(store-scalar wcount (+ t30 1)):50",fontsize="9pt",fontname="monospace"];
21 [fontsize="9pt",fontname="monospace",shape=box,label="[21] IN()\lOUT()\l"];
21 -> 18 [label="(lock m):48",fontsize="9pt",fontname="monospace"];
20 [fontsize="9pt",fontname="monospace",shape=box,label="[20] IN(t28 t29)\lOUT(t28 t29)\l"];
20 -> 21 [label="[(or (> t28 0) (> t29 0))]\l(wait cv m):47",fontsize="9pt",fontname="monospace"];
20 -> 22 [label="[(not (or (> t28 0) (> t29 0)))]\l(load-scalar t30 wcount):47",fontsize="9pt",fontname="monospace"];
19 [fontsize="9pt",fontname="monospace",shape=box,label="[19] IN(t28)\lOUT(t28)\l"];
19 -> 20 [label="(load-scalar t29 rcount):47",fontsize="9pt",fontname="monospace"];
18 [fontsize="9pt",fontname="monospace",shape=box,label="[18] IN()\lOUT()\l"];
18 -> 19 [label="(load-scalar t28 wcount):47",fontsize="9pt",fontname="monospace"];
17 [fontsize="9pt",fontname="monospace",shape=box,label="[17] IN()\lOUT()\l"];
17 -> 18 [label="(lock m):46",fontsize="9pt",fontname="monospace"];
16 [fontsize="9pt",color=blue,fillcolor=blue,fontname="monospace",shape=box,label="[16] IN(arg)\l(%let k arg)\lOUT()\l"];
16 -> 17 [label="tau:89",fontsize="9pt",fontname="monospace"];
15 [fontsize="9pt",fontname="monospace",shape=box,label="[15] IN(i)\l($assign i (+ i 1))\lOUT(i)\l"];
15 -> 14 [label="tau:124",fontsize="9pt",fontname="monospace"];
14 [fontsize="9pt",fontname="monospace",shape=box,label="[14] IN(i)\lOUT(i)\l"];
14 -> 15 [label="[(< i 2)]\l(join (vref pthw i) #f):124",fontsize="9pt",fontname="monospace"];
14 -> 0 [label="[(not (< i 2))]\l(return 0):124",fontsize="9pt",fontname="monospace"];
13 [fontsize="9pt",fontname="monospace",shape=box,label="[13] IN(i)\l($assign i (+ i 1))\lOUT(i)\l"];
13 -> 10 [label="tau:120",fontsize="9pt",fontname="monospace"];
12 [fontsize="9pt",fontname="monospace",shape=box,label="[12] IN()\l(%let i 0)\lOUT(i)\l"];
12 -> 14 [label="tau:124",fontsize="9pt",fontname="monospace"];
11 [fontsize="9pt",fontname="monospace",shape=box,label="[11] IN(i)\lOUT(i)\l"];
11 -> 13 [label="(join (vref pthr i) #f):121",fontsize="9pt",fontname="monospace"];
10 [fontsize="9pt",fontname="monospace",shape=box,label="[10] IN(i)\lOUT(i)\l"];
10 -> 11 [label="[(< i 2)]\ltau:120",fontsize="9pt",fontname="monospace"];
10 -> 12 [label="[(not (< i 2))]\ltau:120",fontsize="9pt",fontname="monospace"];
9 [fontsize="9pt",fontname="monospace",shape=box,label="[9] IN(i)\l($assign i (+ i 1))\lOUT(i)\l"];
9 -> 6 [label="tau:116",fontsize="9pt",fontname="monospace"];
8 [fontsize="9pt",fontname="monospace",shape=box,label="[8] IN()\l(%let i 0)\lOUT(i)\l"];
8 -> 10 [label="tau:120",fontsize="9pt",fontname="monospace"];
7 [fontsize="9pt",fontname="monospace",shape=box,label="[7] IN(i)\lOUT(i)\l"];
7 -> 9 [label="(create (vref pthw i) writer i):117",fontsize="9pt",fontname="monospace"];
6 [fontsize="9pt",fontname="monospace",shape=box,label="[6] IN(i)\lOUT(i)\l"];
6 -> 7 [label="[(< i 2)]\ltau:116",fontsize="9pt",fontname="monospace"];
6 -> 8 [label="[(not (< i 2))]\ltau:116",fontsize="9pt",fontname="monospace"];
5 [fontsize="9pt",fontname="monospace",shape=box,label="[5] IN(i)\l($assign i (+ i 1))\lOUT(i)\l"];
5 -> 2 [label="tau:112",fontsize="9pt",fontname="monospace"];
4 [fontsize="9pt",fontname="monospace",shape=box,label="[4] IN()\l(%let i 0)\lOUT(i)\l"];
4 -> 6 [label="tau:116",fontsize="9pt",fontname="monospace"];
3 [fontsize="9pt",fontname="monospace",shape=box,label="[3] IN(i)\lOUT(i)\l"];
3 -> 5 [label="(create (vref pthr i) reader i):113",fontsize="9pt",fontname="monospace"];
2 [fontsize="9pt",fontname="monospace",shape=box,label="[2] IN(i)\lOUT(i)\l"];
2 -> 3 [label="[(< i 2)]\ltau:112",fontsize="9pt",fontname="monospace"];
2 -> 4 [label="[(not (< i 2))]\ltau:112",fontsize="9pt",fontname="monospace"];
1 [fontsize="9pt",color=blue,fillcolor=blue,fontname="monospace",shape=box,label="[1] IN()\l(%let i 0)\lOUT(i)\l"];
1 -> 2 [label="tau:112",fontsize="9pt",fontname="monospace"];
0 [fontsize="9pt",fontname="monospace",shape=box,label="[0] IN(retval)\lOUT()\l"];
}
