GAS LISTING /tmp/ccnQv7hT.s 			page 1


   1              		.file	"pthreads_hw.c"
   2              		.text
   3              	.Ltext0:
   4              		.comm	thread_count,4,4
   5              		.section	.rodata
   6              	.LC0:
   7 0000 4E756D62 		.string	"Number of Arguments %d\n"
   7      6572206F 
   7      66204172 
   7      67756D65 
   7      6E747320 
   8              	.LC1:
   9 0018 48656C6C 		.string	"Hello from the main thread"
   9      6F206672 
   9      6F6D2074 
   9      6865206D 
   9      61696E20 
  10              		.text
  11              		.globl	main
  13              	main:
  14              	.LFB2:
  15              		.file 1 "pthreads_hw.c"
   1:pthreads_hw.c **** #include <stdio.h>
   2:pthreads_hw.c **** #include <stdlib.h>
   3:pthreads_hw.c **** #include <pthread.h>
   4:pthreads_hw.c **** 
   5:pthreads_hw.c **** /* Global variable: accessible to all threads */
   6:pthreads_hw.c **** int thread_count;
   7:pthreads_hw.c **** 
   8:pthreads_hw.c **** void* Hello(void* rank); /* Thread function */
   9:pthreads_hw.c **** 
  10:pthreads_hw.c **** int main(int argc, char* argv[]) {
  16              		.loc 1 10 0
  17              		.cfi_startproc
  18 0000 55       		pushq	%rbp
  19              		.cfi_def_cfa_offset 16
  20              		.cfi_offset 6, -16
  21 0001 4889E5   		movq	%rsp, %rbp
  22              		.cfi_def_cfa_register 6
  23 0004 53       		pushq	%rbx
  24 0005 4883EC28 		subq	$40, %rsp
  25              		.cfi_offset 3, -24
  26 0009 897DDC   		movl	%edi, -36(%rbp)
  27 000c 488975D0 		movq	%rsi, -48(%rbp)
  28              		.loc 1 10 0
  29 0010 488B4508 		movq	8(%rbp), %rax
  30 0014 4889C7   		movq	%rax, %rdi
  31 0017 E8000000 		call	__tsan_func_entry
  31      00
  11:pthreads_hw.c **** 
  12:pthreads_hw.c ****     printf("Number of Arguments %d\n",argc);
  32              		.loc 1 12 0
  33 001c 8B45DC   		movl	-36(%rbp), %eax
  34 001f 89C6     		movl	%eax, %esi
  35 0021 BF000000 		movl	$.LC0, %edi
  35      00
  36 0026 B8000000 		movl	$0, %eax
GAS LISTING /tmp/ccnQv7hT.s 			page 2


  36      00
  37 002b E8000000 		call	printf
  37      00
  13:pthreads_hw.c **** 
  14:pthreads_hw.c ****     long thread ;/* use long in case of a 64-bit system */
  15:pthreads_hw.c **** 
  16:pthreads_hw.c ****     pthread_t* thread_handles;
  17:pthreads_hw.c **** 
  18:pthreads_hw.c ****     /* Get number of threads from commandline */
  19:pthreads_hw.c ****     thread_count = strtol(argv[1], NULL, 10);
  38              		.loc 1 19 0
  39 0030 488B45D0 		movq	-48(%rbp), %rax
  40 0034 488D5808 		leaq	8(%rax), %rbx
  41 0038 4889DF   		movq	%rbx, %rdi
  42 003b E8000000 		call	__tsan_read8
  42      00
  43 0040 488B03   		movq	(%rbx), %rax
  44 0043 BA0A0000 		movl	$10, %edx
  44      00
  45 0048 BE000000 		movl	$0, %esi
  45      00
  46 004d 4889C7   		movq	%rax, %rdi
  47 0050 E8000000 		call	strtol
  47      00
  48 0055 89C3     		movl	%eax, %ebx
  49 0057 BF000000 		movl	$thread_count, %edi
  49      00
  50 005c E8000000 		call	__tsan_write4
  50      00
  51 0061 891D0000 		movl	%ebx, thread_count(%rip)
  51      0000
  20:pthreads_hw.c **** 
  21:pthreads_hw.c ****     thread_handles = malloc(thread_count*sizeof(pthread_t));
  52              		.loc 1 21 0
  53 0067 BF000000 		movl	$thread_count, %edi
  53      00
  54 006c E8000000 		call	__tsan_read4
  54      00
  55 0071 8B050000 		movl	thread_count(%rip), %eax
  55      0000
  56 0077 4898     		cltq
  57 0079 48C1E003 		salq	$3, %rax
  58 007d 4889C7   		movq	%rax, %rdi
  59 0080 E8000000 		call	malloc
  59      00
  60 0085 488945E8 		movq	%rax, -24(%rbp)
  22:pthreads_hw.c **** 
  23:pthreads_hw.c ****     // spawn threads
  24:pthreads_hw.c ****     for (thread=0; thread < thread_count; thread++)
  61              		.loc 1 24 0
  62 0089 48C745E0 		movq	$0, -32(%rbp)
  62      00000000 
  63 0091 EB2F     		jmp	.L2
  64              	.L3:
  25:pthreads_hw.c ****         pthread_create(&thread_handles[thread], NULL, Hello, (void*) thread);
  65              		.loc 1 25 0 discriminator 3
  66 0093 488B45E0 		movq	-32(%rbp), %rax
GAS LISTING /tmp/ccnQv7hT.s 			page 3


  67 0097 488B55E0 		movq	-32(%rbp), %rdx
  68 009b 488D0CD5 		leaq	0(,%rdx,8), %rcx
  68      00000000 
  69 00a3 488B55E8 		movq	-24(%rbp), %rdx
  70 00a7 488D3C11 		leaq	(%rcx,%rdx), %rdi
  71 00ab 4889C1   		movq	%rax, %rcx
  72 00ae BA000000 		movl	$Hello, %edx
  72      00
  73 00b3 BE000000 		movl	$0, %esi
  73      00
  74 00b8 E8000000 		call	pthread_create
  74      00
  24:pthreads_hw.c ****         pthread_create(&thread_handles[thread], NULL, Hello, (void*) thread);
  75              		.loc 1 24 0 discriminator 3
  76 00bd 488345E0 		addq	$1, -32(%rbp)
  76      01
  77              	.L2:
  24:pthreads_hw.c ****         pthread_create(&thread_handles[thread], NULL, Hello, (void*) thread);
  78              		.loc 1 24 0 is_stmt 0 discriminator 1
  79 00c2 BF000000 		movl	$thread_count, %edi
  79      00
  80 00c7 E8000000 		call	__tsan_read4
  80      00
  81 00cc 8B050000 		movl	thread_count(%rip), %eax
  81      0000
  82 00d2 4898     		cltq
  83 00d4 483B45E0 		cmpq	-32(%rbp), %rax
  84 00d8 7FB9     		jg	.L3
  26:pthreads_hw.c **** 
  27:pthreads_hw.c ****     printf("Hello from the main thread\n");
  85              		.loc 1 27 0 is_stmt 1
  86 00da BF000000 		movl	$.LC1, %edi
  86      00
  87 00df E8000000 		call	puts
  87      00
  28:pthreads_hw.c **** 
  29:pthreads_hw.c ****     // join threads
  30:pthreads_hw.c ****     for (thread=0; thread < thread_count; thread++)
  88              		.loc 1 30 0
  89 00e4 48C745E0 		movq	$0, -32(%rbp)
  89      00000000 
  90 00ec EB31     		jmp	.L4
  91              	.L5:
  31:pthreads_hw.c ****         pthread_join(thread_handles[thread], NULL);
  92              		.loc 1 31 0 discriminator 3
  93 00ee 488B45E0 		movq	-32(%rbp), %rax
  94 00f2 488D14C5 		leaq	0(,%rax,8), %rdx
  94      00000000 
  95 00fa 488B45E8 		movq	-24(%rbp), %rax
  96 00fe 488D1C02 		leaq	(%rdx,%rax), %rbx
  97 0102 4889DF   		movq	%rbx, %rdi
  98 0105 E8000000 		call	__tsan_read8
  98      00
  99 010a 488B03   		movq	(%rbx), %rax
 100 010d BE000000 		movl	$0, %esi
 100      00
 101 0112 4889C7   		movq	%rax, %rdi
GAS LISTING /tmp/ccnQv7hT.s 			page 4


 102 0115 E8000000 		call	pthread_join
 102      00
  30:pthreads_hw.c ****         pthread_join(thread_handles[thread], NULL);
 103              		.loc 1 30 0 discriminator 3
 104 011a 488345E0 		addq	$1, -32(%rbp)
 104      01
 105              	.L4:
  30:pthreads_hw.c ****         pthread_join(thread_handles[thread], NULL);
 106              		.loc 1 30 0 is_stmt 0 discriminator 1
 107 011f BF000000 		movl	$thread_count, %edi
 107      00
 108 0124 E8000000 		call	__tsan_read4
 108      00
 109 0129 8B050000 		movl	thread_count(%rip), %eax
 109      0000
 110 012f 4898     		cltq
 111 0131 483B45E0 		cmpq	-32(%rbp), %rax
 112 0135 7FB7     		jg	.L5
  32:pthreads_hw.c **** 
  33:pthreads_hw.c ****     free (thread_handles);
 113              		.loc 1 33 0 is_stmt 1
 114 0137 488B45E8 		movq	-24(%rbp), %rax
 115 013b 4889C7   		movq	%rax, %rdi
 116 013e E8000000 		call	free
 116      00
  34:pthreads_hw.c **** 
  35:pthreads_hw.c ****     return 0;
 117              		.loc 1 35 0
 118 0143 BB000000 		movl	$0, %ebx
 118      00
 119 0148 E8000000 		call	__tsan_func_exit
 119      00
 120 014d 89D8     		movl	%ebx, %eax
  36:pthreads_hw.c ****     
  37:pthreads_hw.c **** 
  38:pthreads_hw.c **** } /* Done with Main */
 121              		.loc 1 38 0
 122 014f 4883C428 		addq	$40, %rsp
 123 0153 5B       		popq	%rbx
 124 0154 5D       		popq	%rbp
 125              		.cfi_def_cfa 7, 8
 126 0155 C3       		ret
 127              		.cfi_endproc
 128              	.LFE2:
 130              		.section	.rodata
 131              	.LC2:
 132 0033 48656C6C 		.string	"Hello from thread %ld of %d\n"
 132      6F206672 
 132      6F6D2074 
 132      68726561 
 132      6420256C 
 133              		.text
 134              		.globl	Hello
 136              	Hello:
 137              	.LFB3:
  39:pthreads_hw.c ****     
  40:pthreads_hw.c **** void* Hello(void* rank) {
GAS LISTING /tmp/ccnQv7hT.s 			page 5


 138              		.loc 1 40 0
 139              		.cfi_startproc
 140 0156 55       		pushq	%rbp
 141              		.cfi_def_cfa_offset 16
 142              		.cfi_offset 6, -16
 143 0157 4889E5   		movq	%rsp, %rbp
 144              		.cfi_def_cfa_register 6
 145 015a 53       		pushq	%rbx
 146 015b 4883EC28 		subq	$40, %rsp
 147              		.cfi_offset 3, -24
 148 015f 48897DD8 		movq	%rdi, -40(%rbp)
 149              		.loc 1 40 0
 150 0163 488B4508 		movq	8(%rbp), %rax
 151 0167 4889C7   		movq	%rax, %rdi
 152 016a E8000000 		call	__tsan_func_entry
 152      00
  41:pthreads_hw.c ****     long my_rank = (long) rank;
 153              		.loc 1 41 0
 154 016f 488B45D8 		movq	-40(%rbp), %rax
 155 0173 488945E8 		movq	%rax, -24(%rbp)
  42:pthreads_hw.c ****     /* Use long in case of 64-bit system */
  43:pthreads_hw.c **** 
  44:pthreads_hw.c ****     printf("Hello from thread %ld of %d\n", my_rank, thread_count);
 156              		.loc 1 44 0
 157 0177 BF000000 		movl	$thread_count, %edi
 157      00
 158 017c E8000000 		call	__tsan_read4
 158      00
 159 0181 8B150000 		movl	thread_count(%rip), %edx
 159      0000
 160 0187 488B45E8 		movq	-24(%rbp), %rax
 161 018b 4889C6   		movq	%rax, %rsi
 162 018e BF000000 		movl	$.LC2, %edi
 162      00
 163 0193 B8000000 		movl	$0, %eax
 163      00
 164 0198 E8000000 		call	printf
 164      00
  45:pthreads_hw.c **** 
  46:pthreads_hw.c ****     return NULL;
 165              		.loc 1 46 0
 166 019d BB000000 		movl	$0, %ebx
 166      00
 167 01a2 E8000000 		call	__tsan_func_exit
 167      00
 168 01a7 4889D8   		movq	%rbx, %rax
  47:pthreads_hw.c **** } /* Hello */
 169              		.loc 1 47 0
 170 01aa 4883C428 		addq	$40, %rsp
 171 01ae 5B       		popq	%rbx
 172 01af 5D       		popq	%rbp
 173              		.cfi_def_cfa 7, 8
 174 01b0 C3       		ret
 175              		.cfi_endproc
 176              	.LFE3:
 179              	_GLOBAL__sub_I_00099_0_main:
 180              	.LFB4:
GAS LISTING /tmp/ccnQv7hT.s 			page 6


 181              		.loc 1 47 0
 182              		.cfi_startproc
 183 01b1 55       		pushq	%rbp
 184              		.cfi_def_cfa_offset 16
 185              		.cfi_offset 6, -16
 186 01b2 4889E5   		movq	%rsp, %rbp
 187              		.cfi_def_cfa_register 6
 188              		.loc 1 47 0
 189 01b5 E8000000 		call	__tsan_init
 189      00
 190 01ba 5D       		popq	%rbp
 191              		.cfi_def_cfa 7, 8
 192 01bb C3       		ret
 193              		.cfi_endproc
 194              	.LFE4:
 196              		.section	.init_array.00099,"aw"
 197              		.align 8
 198 0000 00000000 		.quad	_GLOBAL__sub_I_00099_0_main
 198      00000000 
 199              		.text
 200              	.Letext0:
 201              		.file 2 "/usr/include/x86_64-linux-gnu/bits/pthreadtypes.h"
GAS LISTING /tmp/ccnQv7hT.s 			page 7


DEFINED SYMBOLS
                            *ABS*:0000000000000000 pthreads_hw.c
                            *COM*:0000000000000004 thread_count
     /tmp/ccnQv7hT.s:13     .text:0000000000000000 main
     /tmp/ccnQv7hT.s:136    .text:0000000000000156 Hello
     /tmp/ccnQv7hT.s:179    .text:00000000000001b1 _GLOBAL__sub_I_00099_0_main

UNDEFINED SYMBOLS
__tsan_func_entry
printf
__tsan_read8
strtol
__tsan_write4
__tsan_read4
malloc
pthread_create
puts
pthread_join
free
__tsan_func_exit
__tsan_init
